{"frames": {

"idle_0.png":
{
	"frame": {"x":0,"y":0,"w":110,"h":110},
	"rotated": false,
	"trimmed": false,
	"spriteSourceSize": {"x":0,"y":0,"w":110,"h":110},
	"sourceSize": {"w":110,"h":110},
	"pivot": {"x":0.5,"y":0.5}
},
"idle_1.png":
{
	"frame": {"x":110,"y":0,"w":110,"h":110},
	"rotated": false,
	"trimmed": false,
	"spriteSourceSize": {"x":0,"y":0,"w":110,"h":110},
	"sourceSize": {"w":110,"h":110},
	"pivot": {"x":0.5,"y":0.5}
},
"idle_2.png":
{
	"frame": {"x":220,"y":0,"w":110,"h":110},
	"rotated": false,
	"trimmed": false,
	"spriteSourceSize": {"x":0,"y":0,"w":110,"h":110},
	"sourceSize": {"w":110,"h":110},
	"pivot": {"x":0.5,"y":0.5}
},
"idle_3.png":
{
	"frame": {"x":330,"y":0,"w":110,"h":110},
	"rotated": false,
	"trimmed": false,
	"spriteSourceSize": {"x":0,"y":0,"w":110,"h":110},
	"sourceSize": {"w":110,"h":110},
	"pivot": {"x":0.5,"y":0.5}
},
"idle_4.png":
{
	"frame": {"x":0,"y":110,"w":110,"h":110},
	"rotated": false,
	"trimmed": false,
	"spriteSourceSize": {"x":0,"y":0,"w":110,"h":110},
	"sourceSize": {"w":110,"h":110},
	"pivot": {"x":0.5,"y":0.5}
},
"idle_5.png":
{
	"frame": {"x":110,"y":110,"w":110,"h":110},
	"rotated": false,
	"trimmed": false,
	"spriteSourceSize": {"x":0,"y":0,"w":110,"h":110},
	"sourceSize": {"w":110,"h":110},
	"pivot": {"x":0.5,"y":0.5}
},
"jump_0.png":
{
	"frame": {"x":220,"y":110,"w":110,"h":110},
	"rotated": false,
	"trimmed": false,
	"spriteSourceSize": {"x":0,"y":0,"w":110,"h":110},
	"sourceSize": {"w":110,"h":110},
	"pivot": {"x":0.5,"y":0.5}
},
"run_0.png":
{
	"frame": {"x":330,"y":110,"w":110,"h":110},
	"rotated": false,
	"trimmed": false,
	"spriteSourceSize": {"x":0,"y":0,"w":110,"h":110},
	"sourceSize": {"w":110,"h":110},
	"pivot": {"x":0.5,"y":0.5}
},
"run_1.png":
{
	"frame": {"x":0,"y":220,"w":110,"h":110},
	"rotated": false,
	"trimmed": false,
	"spriteSourceSize": {"x":0,"y":0,"w":110,"h":110},
	"sourceSize": {"w":110,"h":110},
	"pivot": {"x":0.5,"y":0.5}
},
"run_2.png":
{
	"frame": {"x":110,"y":220,"w":110,"h":110},
	"rotated": false,
	"trimmed": false,
	"spriteSourceSize": {"x":0,"y":0,"w":110,"h":110},
	"sourceSize": {"w":110,"h":110},
	"pivot": {"x":0.5,"y":0.5}
},
"run_3.png":
{
	"frame": {"x":220,"y":220,"w":110,"h":110},
	"rotated": false,
	"trimmed": false,
	"spriteSourceSize": {"x":0,"y":0,"w":110,"h":110},
	"sourceSize": {"w":110,"h":110},
	"pivot": {"x":0.5,"y":0.5}
},
"run_4.png":
{
	"frame": {"x":330,"y":220,"w":110,"h":110},
	"rotated": false,
	"trimmed": false,
	"spriteSourceSize": {"x":0,"y":0,"w":110,"h":110},
	"sourceSize": {"w":110,"h":110},
	"pivot": {"x":0.5,"y":0.5}
},
"run_5.png":
{
	"frame": {"x":0,"y":330,"w":110,"h":110},
	"rotated": false,
	"trimmed": false,
	"spriteSourceSize": {"x":0,"y":0,"w":110,"h":110},
	"sourceSize": {"w":110,"h":110},
	"pivot": {"x":0.5,"y":0.5}
},
"run_6.png":
{
	"frame": {"x":110,"y":330,"w":110,"h":110},
	"rotated": false,
	"trimmed": false,
	"spriteSourceSize": {"x":0,"y":0,"w":110,"h":110},
	"sourceSize": {"w":110,"h":110},
	"pivot": {"x":0.5,"y":0.5}
}},
"meta": {
	"app": "http://www.codeandweb.com/texturepacker",
	"version": "1.0",
	"image": "steven.png",
	"format": "RGBA8888",
	"size": {"w":440,"h":440},
	"scale": "1",
	"smartupdate": "$TexturePacker:SmartUpdate:960aa66a7a96838162e3533fc85285d6:39fbb82d875a799324266fcf7276270b:e82cb432fb2036d3c9fa126aef5f6d84$"
}
}
